Olympus Mons,The summit of Olympus Mons.,37.66621398925781,8.252184867858887,3.0480494499206543,0.11074544556305597,-0.059165683266726846,0.003280471558271329
Obelix Crater,The center of Obelix Crater.,55.355384826660156,23.61966323852539,-0.36456966400146484,-0.03638343869977752,-0.015987878688645353,-2.9088528465254774E-4
Asterix Crater,The center of Asterix Crater.,54.0,16.0,-0.2,-0.0,0.0,-0.0
Hill 937,Summit of Hill 937.,33.5,42.0,0.3,-0.0,0.0,-0.0
Tom Peak,The summit of Tom Peak.,15.0,53.0,1.9,-0.0,0.0,-0.0
Jerry Peak,The summit of Jerry Peak.,48.0,69.0,1.2,-0.0,0.0,-0.0
Jumbo Crater,The center of Jumbo Crater.,47.0,105.0,-0.6,-0.0,0.0,-0.0
Mesa,The summit of the Mesa.,8.0,92.0,2.2,-0.0,0.0,-0.0
Arroyo,The entrance of the Arroyo.,34.0,85.0,-0.75,-0.0,0.0,-0.0
Drilling Shaft,The drilling shaft.,35.2,115.2,0.5,-0.0,0.0,-0.0
